d_flipflop/dump.vcd
$date
  Mon Jul 19 14:25:21 2021
$end
$version
  GHDL v0
$end
$timescale
  1 fs
$end
$var reg 1 ! d_in $end
$var reg 1 " clk_in $end
$var reg 1 # q_out $end
$var reg 1 $ q_bar_out $end
$scope module test $end
$var reg 1 % d $end
$var reg 1 & clk $end
$var reg 1 ' q $end
$var reg 1 ( q_bar $end
$upscope $end
$enddefinitions $end
#0
X!
0"
U#
U$
X%
0&
U'
U(
#15000000
1"
X#
X$
1&
X'
X(
#30000000
0"
0&
#45000000
1"
1&
#60000000
0"
0&
#75000000
1"
1&
#90000000
0"
0&
#100000000
0!
0%
#105000000
1"
0#
1$
1&
0'
1(
#120000000
0"
0&
#135000000
1"
1&
#150000000
0"
0&
#165000000
1"
1&
#180000000
0"
0&
#195000000
1"
1&
#200000000
1!
1%
#210000000
0"
0&
#225000000
1"
1#
0$
1&
1'
0(
#240000000
0"
0&
#255000000
1"
1&
#270000000
0"
0&
#285000000
1"
1&
#300000000
0!
0"
0%
0&
#315000000
1"
0#
1$
1&
0'
1(
#330000000
0"
0&
#345000000
1"
1&
#360000000
0"
0&
#375000000
1"
1&
#390000000
0"
0&
#400000000
1!
1%
#405000000
1"
1#
0$
1&
1'
0(
#420000000
0"
0&
#435000000
1"
1&
#450000000
0"
0&
#465000000
1"
1&
#480000000
0"
0&
#495000000
1"
1&
#500000000
0!
0%
#510000000
0"
0&
#525000000
1"
0#
1$
1&
0'
1(
#540000000
0"
0&
#555000000
1"
1&
#570000000
0"
0&
#585000000
1"
1&
#600000000
1!
0"
1%
0&
#615000000
1"
1#
0$
1&
1'
0(
#630000000
0"
0&
#645000000
1"
1&
#660000000
0"
0&
#675000000
1"
1&
#690000000
0"
0&
#700000000
X!
X%
#705000000
1"
X#
X$
1&
X'
X(
#720000000
0"
0&
#735000000
1"
1&
#750000000
0"
0&
#765000000
1"
1&
#780000000
0"
0&
#795000000
1"
1&
#800000000
0!
0%
#810000000
0"
0&
#825000000
1"
0#
1$
1&
0'
1(
#840000000
0"
0&
#855000000
1"
1&
#870000000
0"
0&
#885000000
1"
1&
#900000000
1!
0"
1%
0&
#915000000
1"
1#
0$
1&
1'
0(
#930000000
0"
0&
#945000000
1"
1&
#960000000
0"
0&
#975000000
1"
1&
#990000000
0"
0&
#1000000000
0!
0%
#1005000000
1"
0#
1$
1&
0'
1(
#1020000000
0"
0&
#1035000000
1"
1&
#1050000000
0"
0&
#1065000000
1"
1&
#1080000000
0"
0&
#1095000000
1"
1&
#1100000000
1!
1%
#1110000000
0"
0&
#1125000000
1"
1#
0$
1&
1'
0(
#1140000000
0"
0&
#1155000000
1"
1&
#1170000000
0"
0&
#1185000000
1"
1&
#1200000000
0!
0"
0%
0&
#1215000000
1"
0#
1$
1&
0'
1(
#1230000000
0"
0&
#1245000000
1"
1&
#1260000000
0"
0&
#1275000000
1"
1&
#1290000000
0"
0&
#1300000000
1!
1%
#1305000000
1"
1#
0$
1&
1'
0(
#1320000000
0"
0&
#1335000000
1"
1&
#1350000000
0"
0&
#1365000000
1"
1&
#1380000000
0"
0&
#1395000000
1"
1&
#1400000000
X!
X%
#1410000000
0"
0&
#1425000000
1"
X#
X$
1&
X'
X(
