encoder_8x3/dump.vcd
$date
  Mon Jul 05 15:02:22 2021
$end
$version
  GHDL v0
$end
$timescale
  1 fs
$end
$var reg 1 ! d0 $end
$var reg 1 " d1 $end
$var reg 1 # d2 $end
$var reg 1 $ d3 $end
$var reg 1 % d4 $end
$var reg 1 & d5 $end
$var reg 1 ' d6 $end
$var reg 1 ( d7 $end
$var reg 1 ) x $end
$var reg 1 * y $end
$var reg 1 + z $end
$scope module test $end
$var reg 1 , q0 $end
$var reg 1 - q1 $end
$var reg 1 . q2 $end
$var reg 1 / q3 $end
$var reg 1 0 q4 $end
$var reg 1 1 q5 $end
$var reg 1 2 q6 $end
$var reg 1 3 q7 $end
$var reg 1 4 a $end
$var reg 1 5 b $end
$var reg 1 6 c $end
$upscope $end
$enddefinitions $end
#0
0!
0"
0#
0$
0%
0&
0'
0(
1)
1*
1+
0,
0-
0.
0/
00
01
02
03
14
15
16
#10000000
1!
0)
0*
0+
1,
04
05
06
#15000000
0!
1"
1)
0,
1-
14
#20000000
0"
1#
0)
1*
0-
1.
04
15
#25000000
0#
1$
1)
0.
1/
14
#30000000
0$
1%
0)
0*
1+
0/
10
04
05
16
#35000000
0%
1&
1)
00
11
14
#40000000
0&
1'
0)
1*
01
12
04
15
#45000000
0'
1(
1)
02
13
14
#50000000
0(
03
