3 Adders and Subtractors/full_subtractor/dump.vcd
$date
  Thu Jul 29 16:28:05 2021
$end
$version
  GHDL v0
$end
$timescale
  1 fs
$end
$var reg 1 ! x $end
$var reg 1 " y $end
$var reg 1 # z $end
$var reg 1 $ s $end
$var reg 1 % c $end
$scope module dut $end
$var reg 1 & x $end
$var reg 1 ' y $end
$var reg 1 ( z $end
$var reg 1 ) s $end
$var reg 1 * c $end
$upscope $end
$enddefinitions $end
#0
0!
0"
0#
0$
0%
0&
0'
0(
0)
0*
#1000000
1!
1$
1&
1)
#2000000
0!
1"
1%
0&
1'
1*
#3000000
1!
0$
0%
1&
0)
0*
#4000000
0!
0"
1#
1$
1%
0&
0'
1(
1)
1*
#5000000
1!
0$
0%
1&
0)
0*
#6000000
0!
1"
1%
0&
1'
1*
#7000000
1!
1$
1&
1)
