PIPO_shift_register/dump.vcd
$date
  Mon Aug 02 14:03:38 2021
$end
$version
  GHDL v0
$end
$timescale
  1 fs
$end
$var reg 4 ! a_in[3:0] $end
$var reg 4 " b_out[3:0] $end
$var reg 1 # clk_in $end
$scope module test $end
$var reg 4 $ a[3:0] $end
$var reg 1 % clk $end
$var reg 4 & b[3:0] $end
$scope module dff_1 $end
$var reg 1 ' d $end
$var reg 1 ( clk $end
$var reg 1 ) q $end
$upscope $end
$scope module dff_2 $end
$var reg 1 * d $end
$var reg 1 + clk $end
$var reg 1 , q $end
$upscope $end
$scope module dff_3 $end
$var reg 1 - d $end
$var reg 1 . clk $end
$var reg 1 / q $end
$upscope $end
$scope module dff_4 $end
$var reg 1 0 d $end
$var reg 1 1 clk $end
$var reg 1 2 q $end
$upscope $end
$upscope $end
$enddefinitions $end
#0
b0000 !
bUUUU "
0#
b0000 $
0%
bUUUU &
0'
0(
U)
0*
0+
U,
0-
0.
U/
00
01
U2
#25000000
b0000 "
1#
1%
b0000 &
1(
0)
1+
0,
1.
0/
11
02
#50000000
b0001 !
0#
b0001 $
0%
1'
0(
0+
0.
01
#75000000
b0001 "
1#
1%
b0001 &
1(
1)
1+
1.
11
#100000000
b0010 !
0#
b0010 $
0%
0'
0(
1*
0+
0.
01
#125000000
b0010 "
1#
1%
b0010 &
1(
0)
1+
1,
1.
11
#150000000
b0011 !
0#
b0011 $
0%
1'
0(
0+
0.
01
#175000000
b0011 "
1#
1%
b0011 &
1(
1)
1+
1.
11
#200000000
b0100 !
0#
b0100 $
0%
0'
0(
0*
0+
1-
0.
01
#225000000
b0100 "
1#
1%
b0100 &
1(
0)
1+
0,
1.
1/
11
#250000000
b0101 !
0#
b0101 $
0%
1'
0(
0+
0.
01
#275000000
b0101 "
1#
1%
b0101 &
1(
1)
1+
1.
11
#300000000
b0110 !
0#
b0110 $
0%
0'
0(
1*
0+
0.
01
#325000000
b0110 "
1#
1%
b0110 &
1(
0)
1+
1,
1.
11
#350000000
b0111 !
0#
b0111 $
0%
1'
0(
0+
0.
01
#375000000
b0111 "
1#
1%
b0111 &
1(
1)
1+
1.
11
#400000000
b1000 !
0#
b1000 $
0%
0'
0(
0*
0+
0-
0.
10
01
#425000000
b1000 "
1#
1%
b1000 &
1(
0)
1+
0,
1.
0/
11
12
#450000000
b1001 !
0#
b1001 $
0%
1'
0(
0+
0.
01
#475000000
b1001 "
1#
1%
b1001 &
1(
1)
1+
1.
11
#500000000
b1010 !
0#
b1010 $
0%
0'
0(
1*
0+
0.
01
#525000000
b1010 "
1#
1%
b1010 &
1(
0)
1+
1,
1.
11
#550000000
b1011 !
0#
b1011 $
0%
1'
0(
0+
0.
01
#575000000
b1011 "
1#
1%
b1011 &
1(
1)
1+
1.
11
#600000000
b1100 !
0#
b1100 $
0%
0'
0(
0*
0+
1-
0.
01
#625000000
b1100 "
1#
1%
b1100 &
1(
0)
1+
0,
1.
1/
11
#650000000
b1101 !
0#
b1101 $
0%
1'
0(
0+
0.
01
#675000000
b1101 "
1#
1%
b1101 &
1(
1)
1+
1.
11
#700000000
b1110 !
0#
b1110 $
0%
0'
0(
1*
0+
0.
01
#725000000
b1110 "
1#
1%
b1110 &
1(
0)
1+
1,
1.
11
#750000000
b1111 !
0#
b1111 $
0%
1'
0(
0+
0.
01
#775000000
b1111 "
1#
1%
b1111 &
1(
1)
1+
1.
11
