synchronous_upCounter/dump.vcd
$date
  Mon Aug 09 13:32:02 2021
$end
$version
  GHDL v0
$end
$timescale
  1 fs
$end
$var reg 1 ! clk $end
$var reg 1 " a_in $end
$var reg 1 # b_out $end
$var reg 1 $ clear_in $end
$scope module test $end
$var reg 1 % clk $end
$var reg 1 & a_in $end
$var reg 1 ' clear $end
$var reg 1 ( b_out $end
$var reg 1 ) qa $end
$var reg 1 * qb $end
$var reg 1 + qc $end
$var reg 1 , jc $end
$var reg 1 - jd $end
$scope module jk_1 $end
$var reg 1 . j $end
$var reg 1 / k $end
$var reg 1 0 clk $end
$var reg 1 1 clear $end
$var reg 1 2 q $end
$upscope $end
$scope module jk_2 $end
$var reg 1 3 j $end
$var reg 1 4 k $end
$var reg 1 5 clk $end
$var reg 1 6 clear $end
$var reg 1 7 q $end
$upscope $end
$scope module and_1 $end
$var reg 1 8 a $end
$var reg 1 9 b $end
$var reg 1 : q $end
$upscope $end
$scope module jk_3 $end
$var reg 1 ; j $end
$var reg 1 < k $end
$var reg 1 = clk $end
$var reg 1 > clear $end
$var reg 1 ? q $end
$upscope $end
$scope module and_2 $end
$var reg 1 @ a $end
$var reg 1 A b $end
$var reg 1 B q $end
$upscope $end
$scope module jk_4 $end
$var reg 1 C j $end
$var reg 1 D k $end
$var reg 1 E clk $end
$var reg 1 F clear $end
$var reg 1 G q $end
$upscope $end
$upscope $end
$enddefinitions $end
#0
U!
U"
0#
1$
U%
U&
1'
0(
0)
0*
0+
0,
0-
U.
U/
U0
11
02
03
04
U5
16
07
08
09
0:
0;
0<
U=
1>
0?
0@
0A
0B
0C
0D
UE
1F
0G
#100000000
0!
1"
0$
0%
1&
0'
1.
1/
00
01
05
06
0=
0>
0E
0F
#125000000
1!
1%
1)
10
12
13
14
15
18
1=
1E
#150000000
0!
0%
00
05
0=
0E
#175000000
1!
1%
0)
1*
10
02
03
04
15
17
08
19
1=
1E
#200000000
0!
0%
00
05
0=
0E
#225000000
1!
1%
1)
1,
10
12
13
14
15
18
1:
1;
1<
1=
1@
1E
#250000000
0!
0%
00
05
0=
0E
#275000000
1!
1%
0)
0*
1+
0,
0-
10
02
03
04
15
07
08
09
0:
0;
0<
1=
1?
0@
1A
0B
0C
0D
1E
#300000000
0!
0%
00
05
0=
0E
#325000000
1!
1%
1)
10
12
13
14
15
18
1=
1E
#350000000
0!
0%
00
05
0=
0E
#375000000
1!
1%
0)
1*
10
02
03
04
15
17
08
19
1=
1E
#400000000
0!
0%
00
05
0=
0E
#425000000
1!
1%
1)
1,
1-
10
12
13
14
15
18
1:
1;
1<
1=
1@
1B
1C
1D
1E
#450000000
0!
0%
00
05
0=
0E
#475000000
1!
1#
1%
1(
0)
0*
0+
0,
0-
10
02
03
04
15
07
08
09
0:
0;
0<
1=
0?
0@
0A
0B
0C
0D
1E
1G
#500000000
0!
0%
00
05
0=
0E
#525000000
1!
1%
1)
10
12
13
14
15
18
1=
1E
#550000000
0!
0%
00
05
0=
0E
#575000000
1!
1%
0)
1*
10
02
03
04
15
17
08
19
1=
1E
#600000000
0!
0%
00
05
0=
0E
#625000000
1!
1%
1)
1,
10
12
13
14
15
18
1:
1;
1<
1=
1@
1E
#650000000
0!
0%
00
05
0=
0E
#675000000
1!
1%
0)
0*
1+
0,
0-
10
02
03
04
15
07
08
09
0:
0;
0<
1=
1?
0@
1A
0B
0C
0D
1E
#700000000
0!
0%
00
05
0=
0E
#725000000
1!
1%
1)
10
12
13
14
15
18
1=
1E
#750000000
0!
0%
00
05
0=
0E
#775000000
1!
1%
0)
1*
10
02
03
04
15
17
08
19
1=
1E
#800000000
0!
0%
00
05
0=
0E
#825000000
1!
1%
1)
1,
1-
10
12
13
14
15
18
1:
1;
1<
1=
1@
1B
1C
1D
1E
#850000000
0!
0%
00
05
0=
0E
#875000000
1!
0#
1%
0(
0)
0*
0+
0,
0-
10
02
03
04
15
07
08
09
0:
0;
0<
1=
0?
0@
0A
0B
0C
0D
1E
0G
#900000000
0!
0%
00
05
0=
0E
#925000000
1!
1%
1)
10
12
13
14
15
18
1=
1E
#950000000
0!
0%
00
05
0=
0E
#975000000
1!
1%
0)
1*
10
02
03
04
15
17
08
19
1=
1E
#1000000000
0!
0%
00
05
0=
0E
#1025000000
1!
1%
1)
1,
10
12
13
14
15
18
1:
1;
1<
1=
1@
1E
#1050000000
0!
0%
00
05
0=
0E
#1075000000
1!
1%
0)
0*
1+
0,
0-
10
02
03
04
15
07
08
09
0:
0;
0<
1=
1?
0@
1A
0B
0C
0D
1E
#1100000000
0!
0%
00
05
0=
0E
#1125000000
1!
1%
1)
10
12
13
14
15
18
1=
1E
#1150000000
0!
0%
00
05
0=
0E
#1175000000
1!
1%
0)
1*
10
02
03
04
15
17
08
19
1=
1E
#1200000000
0!
0%
00
05
0=
0E
#1225000000
1!
1%
1)
1,
1-
10
12
13
14
15
18
1:
1;
1<
1=
1@
1B
1C
1D
1E
#1250000000
0!
0%
00
05
0=
0E
#1275000000
1!
1#
1%
1(
0)
0*
0+
0,
0-
10
02
03
04
15
07
08
09
0:
0;
0<
1=
0?
0@
0A
0B
0C
0D
1E
1G
#1300000000
0!
0%
00
05
0=
0E
#1325000000
1!
1%
1)
10
12
13
14
15
18
1=
1E
#1350000000
0!
0%
00
05
0=
0E
#1375000000
1!
1%
0)
1*
10
02
03
04
15
17
08
19
1=
1E
#1400000000
0!
0%
00
05
0=
0E
#1425000000
1!
1%
1)
1,
10
12
13
14
15
18
1:
1;
1<
1=
1@
1E
#1450000000
0!
0%
00
05
0=
0E
#1475000000
1!
1%
0)
0*
1+
0,
0-
10
02
03
04
15
07
08
09
0:
0;
0<
1=
1?
0@
1A
0B
0C
0D
1E
#1500000000
0!
0%
00
05
0=
0E
#1525000000
1!
1%
1)
10
12
13
14
15
18
1=
1E
#1550000000
0!
0%
00
05
0=
0E
#1575000000
1!
1%
0)
1*
10
02
03
04
15
17
08
19
1=
1E
#1600000000
0!
0%
00
05
0=
0E
#1625000000
1!
1%
1)
1,
1-
10
12
13
14
15
18
1:
1;
1<
1=
1@
1B
1C
1D
1E
#1650000000
0!
0%
00
05
0=
0E
#1675000000
1!
0#
1%
0(
0)
0*
0+
0,
0-
10
02
03
04
15
07
08
09
0:
0;
0<
1=
0?
0@
0A
0B
0C
0D
1E
0G
#1700000000
0!
0%
00
05
0=
0E
#1725000000
1!
1%
1)
10
12
13
14
15
18
1=
1E
#1750000000
0!
0%
00
05
0=
0E
#1775000000
1!
1%
0)
1*
10
02
03
04
15
17
08
19
1=
1E
#1800000000
0!
0%
00
05
0=
0E
#1825000000
1!
1%
1)
1,
10
12
13
14
15
18
1:
1;
1<
1=
1@
1E
#1850000000
0!
0%
00
05
0=
0E
#1875000000
1!
1%
0)
0*
1+
0,
0-
10
02
03
04
15
07
08
09
0:
0;
0<
1=
1?
0@
1A
0B
0C
0D
1E
#1900000000
0!
0%
00
05
0=
0E
#1925000000
1!
1%
1)
10
12
13
14
15
18
1=
1E
#1950000000
0!
0%
00
05
0=
0E
#1975000000
1!
1%
0)
1*
10
02
03
04
15
17
08
19
1=
1E
#2000000000
0!
0%
00
05
0=
0E
#2025000000
1!
1%
1)
1,
1-
10
12
13
14
15
18
1:
1;
1<
1=
1@
1B
1C
1D
1E
#2050000000
0!
0%
00
05
0=
0E
#2075000000
1!
1#
1%
1(
0)
0*
0+
0,
0-
10
02
03
04
15
07
08
09
0:
0;
0<
1=
0?
0@
0A
0B
0C
0D
1E
1G
#2100000000
0!
0%
00
05
0=
0E
#2125000000
1!
1%
1)
10
12
13
14
15
18
1=
1E
#2150000000
0!
0%
00
05
0=
0E
#2175000000
1!
1%
0)
1*
10
02
03
04
15
17
08
19
1=
1E
#2200000000
0!
0%
00
05
0=
0E
#2225000000
1!
1%
1)
1,
10
12
13
14
15
18
1:
1;
1<
1=
1@
1E
#2250000000
0!
0%
00
05
0=
0E
#2275000000
1!
1%
0)
0*
1+
0,
0-
10
02
03
04
15
07
08
09
0:
0;
0<
1=
1?
0@
1A
0B
0C
0D
1E
#2300000000
0!
0%
00
05
0=
0E
#2325000000
1!
1%
1)
10
12
13
14
15
18
1=
1E
#2350000000
0!
0%
00
05
0=
0E
#2375000000
1!
1%
0)
1*
10
02
03
04
15
17
08
19
1=
1E
#2400000000
0!
0%
00
05
0=
0E
#2425000000
1!
1%
1)
1,
1-
10
12
13
14
15
18
1:
1;
1<
1=
1@
1B
1C
1D
1E
#2450000000
0!
0%
00
05
0=
0E
#2475000000
1!
0#
1%
0(
0)
0*
0+
0,
0-
10
02
03
04
15
07
08
09
0:
0;
0<
1=
0?
0@
0A
0B
0C
0D
1E
0G
#2500000000
0!
0%
00
05
0=
0E
#2525000000
1!
1%
1)
10
12
13
14
15
18
1=
1E
#2550000000
0!
0%
00
05
0=
0E
#2575000000
1!
1%
0)
1*
10
02
03
04
15
17
08
19
1=
1E
#2600000000
0!
0%
00
05
0=
0E
#2625000000
1!
1%
1)
1,
10
12
13
14
15
18
1:
1;
1<
1=
1@
1E
#2650000000
0!
0%
00
05
0=
0E
#2675000000
1!
1%
0)
0*
1+
0,
0-
10
02
03
04
15
07
08
09
0:
0;
0<
1=
1?
0@
1A
0B
0C
0D
1E
#2700000000
0!
0%
00
05
0=
0E
#2725000000
1!
1%
1)
10
12
13
14
15
18
1=
1E
#2750000000
0!
0%
00
05
0=
0E
#2775000000
1!
1%
0)
1*
10
02
03
04
15
17
08
19
1=
1E
#2800000000
0!
0%
00
05
0=
0E
#2825000000
1!
1%
1)
1,
1-
10
12
13
14
15
18
1:
1;
1<
1=
1@
1B
1C
1D
1E
#2850000000
0!
0%
00
05
0=
0E
#2875000000
1!
1#
1%
1(
0)
0*
0+
0,
0-
10
02
03
04
15
07
08
09
0:
0;
0<
1=
0?
0@
0A
0B
0C
0D
1E
1G
#2900000000
0!
0%
00
05
0=
0E
#2925000000
1!
1%
1)
10
12
13
14
15
18
1=
1E
#2950000000
0!
0%
00
05
0=
0E
#2975000000
1!
1%
0)
1*
10
02
03
04
15
17
08
19
1=
1E
#3000000000
0!
0%
00
05
0=
0E
#3025000000
1!
1%
1)
1,
10
12
13
14
15
18
1:
1;
1<
1=
1@
1E
#3050000000
0!
0%
00
05
0=
0E
#3075000000
1!
1%
0)
0*
1+
0,
0-
10
02
03
04
15
07
08
09
0:
0;
0<
1=
1?
0@
1A
0B
0C
0D
1E
#3100000000
0!
0%
00
05
0=
0E
#3125000000
1!
1%
1)
10
12
13
14
15
18
1=
1E
#3150000000
0!
0%
00
05
0=
0E
#3175000000
1!
1%
0)
1*
10
02
03
04
15
17
08
19
1=
1E
#3200000000
0!
0%
00
05
0=
0E
#3225000000
1!
1%
1)
1,
1-
10
12
13
14
15
18
1:
1;
1<
1=
1@
1B
1C
1D
1E
#3250000000
0!
0%
00
05
0=
0E
#3275000000
1!
0#
1%
0(
0)
0*
0+
0,
0-
10
02
03
04
15
07
08
09
0:
0;
0<
1=
0?
0@
0A
0B
0C
0D
1E
0G
#3300000000
0!
0%
00
05
0=
0E
#3325000000
1!
1%
1)
10
12
13
14
15
18
1=
1E
#3350000000
0!
0%
00
05
0=
0E
#3375000000
1!
1%
0)
1*
10
02
03
04
15
17
08
19
1=
1E
#3400000000
0!
0%
00
05
0=
0E
#3425000000
1!
1%
1)
1,
10
12
13
14
15
18
1:
1;
1<
1=
1@
1E
#3450000000
0!
0%
00
05
0=
0E
#3475000000
1!
1%
0)
0*
1+
0,
0-
10
02
03
04
15
07
08
09
0:
0;
0<
1=
1?
0@
1A
0B
0C
0D
1E
#3500000000
0!
0%
00
05
0=
0E
#3525000000
1!
1%
1)
10
12
13
14
15
18
1=
1E
#3550000000
0!
0%
00
05
0=
0E
#3575000000
1!
1%
0)
1*
10
02
03
04
15
17
08
19
1=
1E
#3600000000
0!
0%
00
05
0=
0E
#3625000000
1!
1%
1)
1,
1-
10
12
13
14
15
18
1:
1;
1<
1=
1@
1B
1C
1D
1E
#3650000000
0!
0%
00
05
0=
0E
#3675000000
1!
1#
1%
1(
0)
0*
0+
0,
0-
10
02
03
04
15
07
08
09
0:
0;
0<
1=
0?
0@
0A
0B
0C
0D
1E
1G
#3700000000
0!
0%
00
05
0=
0E
#3725000000
1!
1%
1)
10
12
13
14
15
18
1=
1E
#3750000000
0!
0%
00
05
0=
0E
#3775000000
1!
1%
0)
1*
10
02
03
04
15
17
08
19
1=
1E
#3800000000
0!
0%
00
05
0=
0E
#3825000000
1!
1%
1)
1,
10
12
13
14
15
18
1:
1;
1<
1=
1@
1E
#3850000000
0!
0%
00
05
0=
0E
#3875000000
1!
1%
0)
0*
1+
0,
0-
10
02
03
04
15
07
08
09
0:
0;
0<
1=
1?
0@
1A
0B
0C
0D
1E
#3900000000
0!
0%
00
05
0=
0E
#3925000000
1!
1%
1)
10
12
13
14
15
18
1=
1E
#3950000000
0!
0%
00
05
0=
0E
#3975000000
1!
1%
0)
1*
10
02
03
04
15
17
08
19
1=
1E
#4000000000
0!
0%
00
05
0=
0E
#4025000000
1!
1%
1)
1,
1-
10
12
13
14
15
18
1:
1;
1<
1=
1@
1B
1C
1D
1E
#4050000000
0!
0%
00
05
0=
0E
#4075000000
1!
0#
1%
0(
0)
0*
0+
0,
0-
10
02
03
04
15
07
08
09
0:
0;
0<
1=
0?
0@
0A
0B
0C
0D
1E
0G
#4100000000
0!
0%
00
05
0=
0E
#4125000000
1!
1%
1)
10
12
13
14
15
18
1=
1E
#4150000000
0!
0%
00
05
0=
0E
#4175000000
1!
1%
0)
1*
10
02
03
04
15
17
08
19
1=
1E
#4200000000
0!
0%
00
05
0=
0E
#4225000000
1!
1%
1)
1,
10
12
13
14
15
18
1:
1;
1<
1=
1@
1E
#4250000000
0!
0%
00
05
0=
0E
#4275000000
1!
1%
0)
0*
1+
0,
0-
10
02
03
04
15
07
08
09
0:
0;
0<
1=
1?
0@
1A
0B
0C
0D
1E
#4300000000
0!
0%
00
05
0=
0E
#4325000000
1!
1%
1)
10
12
13
14
15
18
1=
1E
#4350000000
0!
0%
00
05
0=
0E
#4375000000
1!
1%
0)
1*
10
02
03
04
15
17
08
19
1=
1E
#4400000000
0!
0%
00
05
0=
0E
#4425000000
1!
1%
1)
1,
1-
10
12
13
14
15
18
1:
1;
1<
1=
1@
1B
1C
1D
1E
#4450000000
0!
0%
00
05
0=
0E
#4475000000
1!
1#
1%
1(
0)
0*
0+
0,
0-
10
02
03
04
15
07
08
09
0:
0;
0<
1=
0?
0@
0A
0B
0C
0D
1E
1G
#4500000000
0!
0%
00
05
0=
0E
#4525000000
1!
1%
1)
10
12
13
14
15
18
1=
1E
#4550000000
0!
0%
00
05
0=
0E
#4575000000
1!
1%
0)
1*
10
02
03
04
15
17
08
19
1=
1E
#4600000000
0!
0%
00
05
0=
0E
#4625000000
1!
1%
1)
1,
10
12
13
14
15
18
1:
1;
1<
1=
1@
1E
#4650000000
0!
0%
00
05
0=
0E
#4675000000
1!
1%
0)
0*
1+
0,
0-
10
02
03
04
15
07
08
09
0:
0;
0<
1=
1?
0@
1A
0B
0C
0D
1E
#4700000000
0!
0%
00
05
0=
0E
#4725000000
1!
1%
1)
10
12
13
14
15
18
1=
1E
#4750000000
0!
0%
00
05
0=
0E
#4775000000
1!
1%
0)
1*
10
02
03
04
15
17
08
19
1=
1E
#4800000000
0!
0%
00
05
0=
0E
#4825000000
1!
1%
1)
1,
1-
10
12
13
14
15
18
1:
1;
1<
1=
1@
1B
1C
1D
1E
#4850000000
0!
0%
00
05
0=
0E
#4875000000
1!
0#
1%
0(
0)
0*
0+
0,
0-
10
02
03
04
15
07
08
09
0:
0;
0<
1=
0?
0@
0A
0B
0C
0D
1E
0G
#4900000000
0!
0%
00
05
0=
0E
#4925000000
1!
1%
1)
10
12
13
14
15
18
1=
1E
#4950000000
0!
0%
00
05
0=
0E
#4975000000
1!
1%
0)
1*
10
02
03
04
15
17
08
19
1=
1E
#5000000000
0!
0%
00
05
0=
0E
#5025000000
1!
1%
1)
1,
10
12
13
14
15
18
1:
1;
1<
1=
1@
1E
#5050000000
0!
0%
00
05
0=
0E
#5075000000
1!
1%
0)
0*
1+
0,
0-
10
02
03
04
15
07
08
09
0:
0;
0<
1=
1?
0@
1A
0B
0C
0D
1E
#5100000000
0!
0%
00
05
0=
0E
#5125000000
1!
1%
1)
10
12
13
14
15
18
1=
1E
