4 Mux and Demux/demux_1x4/dump.vcd
$date
  Thu Jul 29 17:27:04 2021
$end
$version
  GHDL v0
$end
$timescale
  1 fs
$end
$var reg 1 ! x $end
$var reg 1 " s0 $end
$var reg 1 # s1 $end
$var reg 1 $ y0 $end
$var reg 1 % y1 $end
$var reg 1 & y2 $end
$var reg 1 ' y3 $end
$scope module test $end
$var reg 1 ( x $end
$var reg 1 ) s0 $end
$var reg 1 * s1 $end
$var reg 1 + y0 $end
$var reg 1 , y1 $end
$var reg 1 - y2 $end
$var reg 1 . y3 $end
$upscope $end
$enddefinitions $end
#0
0!
0"
0#
0$
Z%
Z&
Z'
0(
0)
0*
0+
Z,
Z-
Z.
#5000000
1"
Z$
0%
1)
Z+
0,
#10000000
0"
1#
Z%
0&
0)
1*
Z,
0-
#15000000
1"
Z&
0'
1)
Z-
0.
#20000000
1!
0"
0#
1$
Z'
1(
0)
0*
1+
Z.
#25000000
1"
Z$
1%
1)
Z+
1,
#30000000
0"
1#
Z%
1&
0)
1*
Z,
1-
#35000000
1"
Z&
1'
1)
Z-
1.
