jk_flipflop/dump.vcd
$date
  Mon Jul 19 14:56:17 2021
$end
$version
  GHDL v0
$end
$timescale
  1 fs
$end
$var reg 1 ! j_in $end
$var reg 1 " k_in $end
$var reg 1 # clk_in $end
$var reg 1 $ q_out $end
$var reg 1 % q_bar_out $end
$scope module test $end
$var reg 1 & j $end
$var reg 1 ' k $end
$var reg 1 ( clk $end
$var reg 1 ) q $end
$var reg 1 * q_bar $end
$upscope $end
$enddefinitions $end
#0
X!
X"
0#
U$
U%
X&
X'
0(
U)
U*
#15000000
1#
1(
#30000000
0#
0(
#45000000
1#
1(
#60000000
0#
0(
#75000000
1#
1(
#90000000
0#
0(
#100000000
0!
0"
0&
0'
#105000000
1#
1(
#120000000
0#
0(
#135000000
1#
1(
#150000000
0#
0(
#165000000
1#
1(
#180000000
0#
0(
#195000000
1#
1(
#200000000
1"
1'
#210000000
0#
0(
#225000000
1#
0$
1%
1(
0)
1*
#240000000
0#
0(
#255000000
1#
1(
#270000000
0#
0(
#285000000
1#
1(
#300000000
1!
0"
0#
1&
0'
0(
#315000000
1#
1$
0%
1(
1)
0*
#330000000
0#
0(
#345000000
1#
1(
#360000000
0#
0(
#375000000
1#
1(
#390000000
0#
0(
#400000000
1"
1'
#405000000
1#
0$
1%
1(
0)
1*
#420000000
0#
0(
#435000000
1#
1$
0%
1(
1)
0*
#450000000
0#
0(
#465000000
1#
0$
1%
1(
0)
1*
#480000000
0#
0(
#495000000
1#
1$
0%
1(
1)
0*
#500000000
X!
X"
X&
X'
#510000000
0#
0(
#525000000
1#
0$
1%
1(
0)
1*
#540000000
0#
0(
#555000000
1#
1$
0%
1(
1)
0*
#570000000
0#
0(
#585000000
1#
0$
1%
1(
0)
1*
#600000000
0!
0"
0#
0&
0'
0(
#615000000
1#
1(
#630000000
0#
0(
#645000000
1#
1(
#660000000
0#
0(
#675000000
1#
1(
#690000000
0#
0(
#700000000
1"
1'
#705000000
1#
1(
#720000000
0#
0(
#735000000
1#
1(
#750000000
0#
0(
#765000000
1#
1(
#780000000
0#
0(
#795000000
1#
1(
#800000000
1!
0"
1&
0'
#810000000
0#
0(
#825000000
1#
1$
0%
1(
1)
0*
#840000000
0#
0(
#855000000
1#
1(
#870000000
0#
0(
#885000000
1#
1(
#900000000
1"
0#
1'
0(
#915000000
1#
0$
1%
1(
0)
1*
#930000000
0#
0(
#945000000
1#
1$
0%
1(
1)
0*
#960000000
0#
0(
#975000000
1#
0$
1%
1(
0)
1*
#990000000
0#
0(
#1000000000
#1005000000
1#
1$
0%
1(
1)
0*
#1020000000
0#
0(
#1035000000
1#
0$
1%
1(
0)
1*
#1050000000
0#
0(
#1065000000
1#
1$
0%
1(
1)
0*
#1080000000
0#
0(
#1095000000
1#
0$
1%
1(
0)
1*
#1110000000
0#
0(
#1125000000
1#
1$
0%
1(
1)
0*
#1140000000
0#
0(
#1155000000
1#
0$
1%
1(
0)
1*
#1170000000
0#
0(
#1185000000
1#
1$
0%
1(
1)
0*
#1200000000
0#
0(
#1215000000
1#
0$
1%
1(
0)
1*
#1230000000
0#
0(
#1245000000
1#
1$
0%
1(
1)
0*
#1260000000
0#
0(
#1275000000
1#
0$
1%
1(
0)
1*
#1290000000
0#
0(
#1305000000
1#
1$
0%
1(
1)
0*
#1320000000
0#
0(
#1335000000
1#
0$
1%
1(
0)
1*
#1350000000
0#
0(
#1365000000
1#
1$
0%
1(
1)
0*
#1380000000
0#
0(
#1395000000
1#
0$
1%
1(
0)
1*
#1410000000
0#
0(
#1425000000
1#
1$
0%
1(
1)
0*
#1440000000
0#
0(
#1455000000
1#
0$
1%
1(
0)
1*
#1470000000
0#
0(
#1485000000
1#
1$
0%
1(
1)
0*
#1500000000
0#
0(
#1515000000
1#
0$
1%
1(
0)
1*
#1530000000
0#
0(
#1545000000
1#
1$
0%
1(
1)
0*
#1560000000
0#
0(
#1575000000
1#
0$
1%
1(
0)
1*
#1590000000
0#
0(
#1605000000
1#
1$
0%
1(
1)
0*
#1620000000
0#
0(
#1635000000
1#
0$
1%
1(
0)
1*
#1650000000
0#
0(
#1665000000
1#
1$
0%
1(
1)
0*
#1680000000
0#
0(
#1695000000
1#
0$
1%
1(
0)
1*
#1710000000
0#
0(
#1725000000
1#
1$
0%
1(
1)
0*
#1740000000
0#
0(
#1755000000
1#
0$
1%
1(
0)
1*
#1770000000
0#
0(
#1785000000
1#
1$
0%
1(
1)
0*
#1800000000
0#
0(
#1815000000
1#
0$
1%
1(
0)
1*
#1830000000
0#
0(
#1845000000
1#
1$
0%
1(
1)
0*
#1860000000
0#
0(
#1875000000
1#
0$
1%
1(
0)
1*
#1890000000
0#
0(
#1905000000
1#
1$
0%
1(
1)
0*
#1920000000
0#
0(
#1935000000
1#
0$
1%
1(
0)
1*
#1950000000
0#
0(
#1965000000
1#
1$
0%
1(
1)
0*
#1980000000
0#
0(
#1995000000
1#
0$
1%
1(
0)
1*
#2010000000
0#
0(
#2025000000
1#
1$
0%
1(
1)
0*
#2040000000
0#
0(
#2055000000
1#
0$
1%
1(
0)
1*
#2070000000
0#
0(
#2085000000
1#
1$
0%
1(
1)
0*
#2100000000
0#
0(
#2115000000
1#
0$
1%
1(
0)
1*
#2130000000
0#
0(
#2145000000
1#
1$
0%
1(
1)
0*
#2160000000
0#
0(
#2175000000
1#
0$
1%
1(
0)
1*
#2190000000
0#
0(
#2205000000
1#
1$
0%
1(
1)
0*
#2220000000
0#
0(
#2235000000
1#
0$
1%
1(
0)
1*
#2250000000
0#
0(
#2265000000
1#
1$
0%
1(
1)
0*
#2280000000
0#
0(
#2295000000
1#
0$
1%
1(
0)
1*
#2310000000
0#
0(
#2325000000
1#
1$
0%
1(
1)
0*
#2340000000
0#
0(
#2355000000
1#
0$
1%
1(
0)
1*
#2370000000
0#
0(
#2385000000
1#
1$
0%
1(
1)
0*
#2400000000
0#
0(
#2415000000
1#
0$
1%
1(
0)
1*
#2430000000
0#
0(
#2445000000
1#
1$
0%
1(
1)
0*
#2460000000
0#
0(
#2475000000
1#
0$
1%
1(
0)
1*
#2490000000
0#
0(
#2505000000
1#
1$
0%
1(
1)
0*
#2520000000
0#
0(
#2535000000
1#
0$
1%
1(
0)
1*
#2550000000
0#
0(
#2565000000
1#
1$
0%
1(
1)
0*
#2580000000
0#
0(
#2595000000
1#
0$
1%
1(
0)
1*
#2610000000
0#
0(
#2625000000
1#
1$
0%
1(
1)
0*
#2640000000
0#
0(
#2655000000
1#
0$
1%
1(
0)
1*
#2670000000
0#
0(
#2685000000
1#
1$
0%
1(
1)
0*
#2700000000
0#
0(
#2715000000
1#
0$
1%
1(
0)
1*
#2730000000
0#
0(
#2745000000
1#
1$
0%
1(
1)
0*
#2760000000
0#
0(
#2775000000
1#
0$
1%
1(
0)
1*
#2790000000
0#
0(
#2805000000
1#
1$
0%
1(
1)
0*
#2820000000
0#
0(
#2835000000
1#
0$
1%
1(
0)
1*
#2850000000
0#
0(
#2865000000
1#
1$
0%
1(
1)
0*
#2880000000
0#
0(
#2895000000
1#
0$
1%
1(
0)
1*
#2910000000
0#
0(
#2925000000
1#
1$
0%
1(
1)
0*
#2940000000
0#
0(
#2955000000
1#
0$
1%
1(
0)
1*
#2970000000
0#
0(
#2985000000
1#
1$
0%
1(
1)
0*
#3000000000
0#
0(
#3015000000
1#
0$
1%
1(
0)
1*
