jk_flipflop/dump.vcd
$date
  Mon Aug 02 14:52:45 2021
$end
$version
  GHDL v0
$end
$timescale
  1 fs
$end
$var reg 1 ! j_in $end
$var reg 1 " k_in $end
$var reg 1 # clk_in $end
$var reg 1 $ q_out $end
$var reg 1 % q_bar_out $end
$scope module test $end
$var reg 1 & j $end
$var reg 1 ' k $end
$var reg 1 ( clk $end
$var reg 1 ) q $end
$var reg 1 * q_bar $end
$upscope $end
$enddefinitions $end
#0
1!
0"
0#
U$
U%
1&
0'
0(
U)
U*
#15000000
1#
1$
0%
1(
1)
0*
#30000000
0#
0(
#45000000
1#
1(
#60000000
0#
0(
#75000000
1#
1(
#90000000
0#
0(
#100000000
0!
1"
0&
1'
#105000000
1#
0$
1%
1(
0)
1*
#120000000
0#
0(
#135000000
1#
1(
#150000000
0#
0(
#165000000
1#
1(
#180000000
0#
0(
#195000000
1#
1(
#200000000
1!
0"
1&
0'
#210000000
0#
0(
#225000000
1#
1$
0%
1(
1)
0*
#240000000
0#
0(
#255000000
1#
1(
#270000000
0#
0(
#285000000
1#
1(
#300000000
1"
0#
1'
0(
#315000000
1#
0$
1%
1(
0)
1*
#330000000
0#
0(
#345000000
1#
1$
0%
1(
1)
0*
#360000000
0#
0(
#375000000
1#
0$
1%
1(
0)
1*
#390000000
0#
0(
#400000000
X!
X"
X&
X'
#405000000
1#
1$
0%
1(
1)
0*
#420000000
0#
0(
#435000000
1#
0$
1%
1(
0)
1*
#450000000
0#
0(
#465000000
1#
1$
0%
1(
1)
0*
#480000000
0#
0(
#495000000
1#
0$
1%
1(
0)
1*
#500000000
0!
0"
0&
0'
#510000000
0#
0(
#525000000
1#
1(
#540000000
0#
0(
#555000000
1#
1(
#570000000
0#
0(
#585000000
1#
1(
#600000000
1"
0#
1'
0(
#615000000
1#
1(
#630000000
0#
0(
#645000000
1#
1(
#660000000
0#
0(
#675000000
1#
1(
#690000000
0#
0(
#700000000
1!
0"
1&
0'
#705000000
1#
1$
0%
1(
1)
0*
#720000000
0#
0(
#735000000
1#
1(
#750000000
0#
0(
#765000000
1#
1(
#780000000
0#
0(
#795000000
1#
1(
#800000000
1"
1'
#810000000
0#
0(
#825000000
1#
0$
1%
1(
0)
1*
#840000000
0#
0(
#855000000
1#
1$
0%
1(
1)
0*
#870000000
0#
0(
#885000000
1#
0$
1%
1(
0)
1*
#900000000
0#
0(
#915000000
1#
1$
0%
1(
1)
0*
#930000000
0#
0(
#945000000
1#
0$
1%
1(
0)
1*
#960000000
0#
0(
#975000000
1#
1$
0%
1(
1)
0*
#990000000
0#
0(
#1005000000
1#
0$
1%
1(
0)
1*
#1020000000
0#
0(
#1035000000
1#
1$
0%
1(
1)
0*
#1050000000
0#
0(
#1065000000
1#
0$
1%
1(
0)
1*
#1080000000
0#
0(
#1095000000
1#
1$
0%
1(
1)
0*
#1110000000
0#
0(
#1125000000
1#
0$
1%
1(
0)
1*
#1140000000
0#
0(
#1155000000
1#
1$
0%
1(
1)
0*
#1170000000
0#
0(
#1185000000
1#
0$
1%
1(
0)
1*
#1200000000
0#
0(
#1215000000
1#
1$
0%
1(
1)
0*
#1230000000
0#
0(
#1245000000
1#
0$
1%
1(
0)
1*
#1260000000
0#
0(
#1275000000
1#
1$
0%
1(
1)
0*
#1290000000
0#
0(
#1305000000
1#
0$
1%
1(
0)
1*
#1320000000
0#
0(
#1335000000
1#
1$
0%
1(
1)
0*
#1350000000
0#
0(
#1365000000
1#
0$
1%
1(
0)
1*
#1380000000
0#
0(
#1395000000
1#
1$
0%
1(
1)
0*
#1410000000
0#
0(
#1425000000
1#
0$
1%
1(
0)
1*
#1440000000
0#
0(
#1455000000
1#
1$
0%
1(
1)
0*
#1470000000
0#
0(
#1485000000
1#
0$
1%
1(
0)
1*
#1500000000
0#
0(
#1515000000
1#
1$
0%
1(
1)
0*
#1530000000
0#
0(
#1545000000
1#
0$
1%
1(
0)
1*
#1560000000
0#
0(
#1575000000
1#
1$
0%
1(
1)
0*
#1590000000
0#
0(
#1605000000
1#
0$
1%
1(
0)
1*
#1620000000
0#
0(
#1635000000
1#
1$
0%
1(
1)
0*
#1650000000
0#
0(
#1665000000
1#
0$
1%
1(
0)
1*
#1680000000
0#
0(
#1695000000
1#
1$
0%
1(
1)
0*
#1710000000
0#
0(
#1725000000
1#
0$
1%
1(
0)
1*
#1740000000
0#
0(
#1755000000
1#
1$
0%
1(
1)
0*
#1770000000
0#
0(
#1785000000
1#
0$
1%
1(
0)
1*
#1800000000
0#
0(
#1815000000
1#
1$
0%
1(
1)
0*
#1830000000
0#
0(
#1845000000
1#
0$
1%
1(
0)
1*
#1860000000
0#
0(
#1875000000
1#
1$
0%
1(
1)
0*
#1890000000
0#
0(
#1905000000
1#
0$
1%
1(
0)
1*
#1920000000
0#
0(
#1935000000
1#
1$
0%
1(
1)
0*
#1950000000
0#
0(
#1965000000
1#
0$
1%
1(
0)
1*
#1980000000
0#
0(
#1995000000
1#
1$
0%
1(
1)
0*
#2010000000
0#
0(
#2025000000
1#
0$
1%
1(
0)
1*
#2040000000
0#
0(
#2055000000
1#
1$
0%
1(
1)
0*
#2070000000
0#
0(
#2085000000
1#
0$
1%
1(
0)
1*
#2100000000
0#
0(
#2115000000
1#
1$
0%
1(
1)
0*
#2130000000
0#
0(
#2145000000
1#
0$
1%
1(
0)
1*
#2160000000
0#
0(
#2175000000
1#
1$
0%
1(
1)
0*
#2190000000
0#
0(
#2205000000
1#
0$
1%
1(
0)
1*
#2220000000
0#
0(
#2235000000
1#
1$
0%
1(
1)
0*
#2250000000
0#
0(
#2265000000
1#
0$
1%
1(
0)
1*
#2280000000
0#
0(
#2295000000
1#
1$
0%
1(
1)
0*
#2310000000
0#
0(
#2325000000
1#
0$
1%
1(
0)
1*
#2340000000
0#
0(
#2355000000
1#
1$
0%
1(
1)
0*
#2370000000
0#
0(
#2385000000
1#
0$
1%
1(
0)
1*
#2400000000
0#
0(
#2415000000
1#
1$
0%
1(
1)
0*
#2430000000
0#
0(
#2445000000
1#
0$
1%
1(
0)
1*
#2460000000
0#
0(
#2475000000
1#
1$
0%
1(
1)
0*
#2490000000
0#
0(
#2505000000
1#
0$
1%
1(
0)
1*
#2520000000
0#
0(
#2535000000
1#
1$
0%
1(
1)
0*
#2550000000
0#
0(
#2565000000
1#
0$
1%
1(
0)
1*
#2580000000
0#
0(
#2595000000
1#
1$
0%
1(
1)
0*
#2610000000
0#
0(
#2625000000
1#
0$
1%
1(
0)
1*
#2640000000
0#
0(
#2655000000
1#
1$
0%
1(
1)
0*
#2670000000
0#
0(
#2685000000
1#
0$
1%
1(
0)
1*
#2700000000
0#
0(
#2715000000
1#
1$
0%
1(
1)
0*
#2730000000
0#
0(
#2745000000
1#
0$
1%
1(
0)
1*
#2760000000
0#
0(
#2775000000
1#
1$
0%
1(
1)
0*
#2790000000
0#
0(
#2805000000
1#
0$
1%
1(
0)
1*
#2820000000
0#
0(
#2835000000
1#
1$
0%
1(
1)
0*
#2850000000
0#
0(
#2865000000
1#
0$
1%
1(
0)
1*
#2880000000
0#
0(
#2895000000
1#
1$
0%
1(
1)
0*
#2910000000
0#
0(
#2925000000
1#
0$
1%
1(
0)
1*
#2940000000
0#
0(
#2955000000
1#
1$
0%
1(
1)
0*
#2970000000
0#
0(
#2985000000
1#
0$
1%
1(
0)
1*
#3000000000
0#
0(
#3015000000
1#
1$
0%
1(
1)
0*
