4 Mux and Demux/mux_2x1/dump.vcd
$date
  Thu Jul 29 16:39:04 2021
$end
$version
  GHDL v0
$end
$timescale
  1 fs
$end
$var reg 1 ! x $end
$var reg 1 " y $end
$var reg 1 # s $end
$var reg 1 $ o $end
$scope module test $end
$var reg 1 % x $end
$var reg 1 & y $end
$var reg 1 ' s $end
$var reg 1 ( o $end
$upscope $end
$enddefinitions $end
#0
0!
0"
0#
0$
0%
0&
0'
0(
#5000000
1#
1'
#10000000
1!
0#
1$
1%
0'
1(
#15000000
1#
0$
1'
0(
#20000000
0!
1"
0#
0%
1&
0'
#25000000
1#
1$
1'
1(
#30000000
1!
0#
1%
0'
#35000000
1#
1'
