SISO_shift_register/dump.vcd
$date
  Mon Jul 26 14:30:11 2021
$end
$version
  GHDL v0
$end
$timescale
  1 fs
$end
$var reg 1 ! s_in $end
$var reg 1 " clk $end
$var reg 1 # s_out $end
$scope module test $end
$var reg 1 $ serial_in $end
$var reg 1 % clk_in $end
$var reg 1 & serial_out $end
$var reg 1 ' t_1 $end
$var reg 1 ( t_2 $end
$var reg 1 ) t_3 $end
$scope module ff_1 $end
$var reg 1 * d $end
$var reg 1 + clk $end
$var reg 1 , q $end
$upscope $end
$scope module ff_2 $end
$var reg 1 - d $end
$var reg 1 . clk $end
$var reg 1 / q $end
$upscope $end
$scope module ff_3 $end
$var reg 1 0 d $end
$var reg 1 1 clk $end
$var reg 1 2 q $end
$upscope $end
$scope module ff_4 $end
$var reg 1 3 d $end
$var reg 1 4 clk $end
$var reg 1 5 q $end
$upscope $end
$upscope $end
$enddefinitions $end
#0
1!
0"
U#
1$
0%
U&
U'
U(
U)
1*
0+
U,
U-
0.
U/
U0
01
U2
U3
04
U5
#25000000
1"
X#
1%
X&
1'
X(
X)
1+
1,
1-
1.
X/
X0
11
X2
X3
14
X5
#50000000
0!
0"
0$
0%
0*
0+
0.
01
04
#75000000
1"
1%
0'
1(
1+
0,
0-
1.
1/
10
11
14
#100000000
0"
0%
0+
0.
01
04
#125000000
1"
1%
0(
1)
1+
1.
0/
00
11
12
13
14
#150000000
0"
0%
0+
0.
01
04
#175000000
1"
1#
1%
1&
0)
1+
1.
11
02
03
14
15
#200000000
1!
0"
1$
0%
1*
0+
0.
01
04
#225000000
1"
0#
1%
0&
1'
1+
1,
1-
1.
11
14
05
#250000000
0!
0"
0$
0%
0*
0+
0.
01
04
#275000000
1"
1%
0'
1(
1+
0,
0-
1.
1/
10
11
14
#300000000
1!
0"
1$
0%
1*
0+
0.
01
04
#325000000
1"
1%
1'
0(
1)
1+
1,
1-
1.
0/
00
11
12
13
14
#350000000
0!
0"
0$
0%
0*
0+
0.
01
04
#375000000
1"
1#
1%
1&
0'
1(
0)
1+
0,
0-
1.
1/
10
11
02
03
14
15
#400000000
1!
0"
1$
0%
1*
0+
0.
01
04
#425000000
1"
0#
1%
0&
1'
0(
1)
1+
1,
1-
1.
0/
00
11
12
13
14
05
#450000000
0"
0%
0+
0.
01
04
#475000000
1"
1#
1%
1&
1(
0)
1+
1.
1/
10
11
02
03
14
15
#500000000
0"
0%
0+
0.
01
04
#525000000
1"
0#
1%
0&
1)
1+
1.
11
12
13
14
05
#550000000
0"
0%
0+
0.
01
04
#575000000
1"
1#
1%
1&
1+
1.
11
14
15
#600000000
0!
0"
0$
0%
0*
0+
0.
01
04
#625000000
1"
1%
0'
1+
0,
0-
1.
11
14
#650000000
0"
0%
0+
0.
01
04
#675000000
1"
1%
0(
1+
1.
0/
00
11
14
#700000000
0"
0%
0+
0.
01
04
#725000000
1"
1%
0)
1+
1.
11
02
03
14
#750000000
0"
0%
0+
0.
01
04
#775000000
1"
0#
1%
0&
1+
1.
11
14
05
#800000000
1!
0"
1$
0%
1*
0+
0.
01
04
#825000000
1"
1%
1'
1+
1,
1-
1.
11
14
#850000000
0!
0"
0$
0%
0*
0+
0.
01
04
#875000000
1"
1%
0'
1(
1+
0,
0-
1.
1/
10
11
14
#900000000
1!
0"
1$
0%
1*
0+
0.
01
04
#925000000
1"
1%
1'
0(
1)
1+
1,
1-
1.
0/
00
11
12
13
14
#950000000
0!
0"
0$
0%
0*
0+
0.
01
04
#975000000
1"
1#
1%
1&
0'
1(
0)
1+
0,
0-
1.
1/
10
11
02
03
14
15
#1000000000
0"
0%
0+
0.
01
04
#1025000000
1"
0#
1%
0&
0(
1)
1+
1.
0/
00
11
12
13
14
05
#1050000000
1!
0"
1$
0%
1*
0+
0.
01
04
#1075000000
1"
1#
1%
1&
1'
0)
1+
1,
1-
1.
11
02
03
14
15
#1100000000
0!
0"
0$
0%
0*
0+
0.
01
04
#1125000000
1"
0#
1%
0&
0'
1(
1+
0,
0-
1.
1/
10
11
14
05
#1150000000
1!
0"
1$
0%
1*
0+
0.
01
04
#1175000000
1"
1%
1'
0(
1)
1+
1,
1-
1.
0/
00
11
12
13
14
#1200000000
0"
0%
0+
0.
01
04
#1225000000
1"
1#
1%
1&
1(
0)
1+
1.
1/
10
11
02
03
14
15
#1250000000
0"
0%
0+
0.
01
04
#1275000000
1"
0#
1%
0&
1)
1+
1.
11
12
13
14
05
#1300000000
0"
0%
0+
0.
01
04
#1325000000
1"
1#
1%
1&
1+
1.
11
14
15
