5 Encoder and Decoder/decoder_3x8/dump.vcd
$date
  Mon Jul 05 14:17:36 2021
$end
$version
  GHDL v0
$end
$timescale
  1 fs
$end
$var reg 1 ! x $end
$var reg 1 " y $end
$var reg 1 # z $end
$var reg 1 $ d0 $end
$var reg 1 % d1 $end
$var reg 1 & d2 $end
$var reg 1 ' d3 $end
$var reg 1 ( d4 $end
$var reg 1 ) d5 $end
$var reg 1 * d6 $end
$var reg 1 + d7 $end
$scope module test $end
$var reg 1 , a $end
$var reg 1 - b $end
$var reg 1 . c $end
$var reg 1 / q0 $end
$var reg 1 0 q1 $end
$var reg 1 1 q2 $end
$var reg 1 2 q3 $end
$var reg 1 3 q4 $end
$var reg 1 4 q5 $end
$var reg 1 5 q6 $end
$var reg 1 6 q7 $end
$upscope $end
$enddefinitions $end
#0
0!
0"
0#
1$
U%
U&
U'
U(
U)
U*
1+
0,
0-
0.
1/
U0
U1
U2
U3
U4
U5
16
#1000000
1!
1%
1,
10
#2000000
0!
1"
1&
0,
1-
11
#3000000
1!
1'
1,
12
#4000000
0!
0"
1#
1(
0,
0-
1.
13
#5000000
1!
1)
1,
14
#6000000
0!
1"
1*
0,
1-
15
#7000000
1!
1,
